[
 {
    "name": "Home",
    "leftButton": "",
    "rightButtons": ["nav-search.png", "nav-info.png", "nav_photo.png", "nav-idrive.png", "nav-settings.png"],
    "rightButtonActions": ["Global-Search", "HowToGuide-View", "Open-Photo", "iDrive", "Setttings"]
 },
 
 {
    "name": "Setttings",
    "title": "SETTINGS",
    "titleImage": "icon-med-settings.png",
    "leftButton": "nav-x.png",
    "rightButtons": [],
    "rightButtonActions": []
 },
 
 {
    "name": "iDrive",
    "title": "iDRIVE",
    "titleImage": "icon-med-idrive.png",
    "leftButton": "nav-x.png",
    "rightButtons": ["nav-export.png"],
    "rightButtonActions": ["Share"]
 },
 
 {
    "name": "iDrive-Functions",
    "title": "iDRIVE",
    "titleImage": "icon-med-idrive.png",
    "leftButton": "nav-x.png",
    "rightButtons": ["nav-search.png", "CANCEL", "MOVE", "SEND", "DELETE"],
    "rightButtonActions": ["Global-Search", "Cancel", "Move", "Send", "Delete"]
},
 
 {
    "name": "Global-Search",
    "title": "",
    "showsSearchBar": true,
    "titleImage": "icon-med-search.png",
    "leftButton": "nav-x.png",
    "rightButtons": [],
    "showActivityIndicator": true
 },
 
 {
    "name": "Brochures",
    "title": "BROCHURES",
    "titleImage": "icon-med-search.png",
    "leftButton": "nav-home.png",
    "rightButtons": ["nav-info.png", "nav-idrive.png", "nav-export.png"],
    "rightButtonActions": ["HowToGuide-View", "iDrive", "Share"]
 },
 
 {
 "name": "In The Press",
 "title": "IN THE PRESS",
 "titleImage": "icon-med-search.png",
 "leftButton": "nav-home.png",
 "rightButtons": ["nav-info.png", "nav-idrive.png", "nav-export.png"],
 "rightButtonActions": ["HowToGuide-View", "iDrive", "Share"]
 },

 {
 "name": "In The Press-View",
 "title": "{AssetTitle}",
 "titleImage": "icon-med-inthepress.png",
 "leftButton": "nav-x.png",
 "rightButtons": ["nav-export.png"],
 "rightButtonActions": ["Share"]
 },
 
 {
    "name": "Brochure-Export",
    "title": "BROCHURES",
    "titleImage": "icon-med-brochures.png",
    "leftButton": "nav-x.png",
    "rightButtons": ["nav-search.png", "nav-info.png", "nav-idrive.png", "CANCEL", "SEND", "SAVE"],
    "rightButtonActions": ["Local-Search", "HowToGuide-View", "iDrive", "Setttings", "Cancel", "Send", "Save"]
 },
 
 {
    "name": "Brochure-View",
    "title": "{AssetTitle}",
    "titleImage": "icon-med-brochures.png",
    "leftButton": "nav-x.png",
    "rightButtons": ["nav-export.png"],
    "rightButtonActions": ["Share"]
 },
 
 {
 "name": "HowToGuide-View",
 "title": "{AssetTitle}",
 "titleImage": "icon-med-brochures.png",
 "leftButton": "nav-x.png",
 "rightButtons": [],
 "rightButtonActions": []
 },
 
 {
    "name": "Photos",
    "title": "PHOTOS",
    "titleImage": "icon-med-search.png",
    "leftButton": "nav-home.png",
    "rightButtons": ["nav-tags.png", "nav-info.png", "nav-idrive.png", "nav-export.png"],
    "rightButtonActions": ["Photos-Tags-IS_NOW_MODAL", "HowToGuide-View", "iDrive", "Share"]
},
 
 {
    "name": "Photos-Tags",
    "title": "TAGS",
    "titleImage": "icon-med-tags.png",
    "leftButton": "nav-x.png",
    "rightButtons": []
 },

 {
    "name": "Photos-Tags-Results",
    "title": "TAGS",
    "titleImage": "icon-med-tag.png",
    "titleExtra": "TagLabel",
    "leftButton": "nav-x.png",
    "rightButtons": ["nav-search.png", "nav-info.png", "nav-idrive.png", "nav-settings.png"],
    "rightButtonActions": ["Local-Search", "HowToGuide-View", "iDrive", "Settings"]
 },
 
 {
    "name": "Photos-View",
    "title": "{AssetTitle}",
    "titleImage": "icon-med-search.png",
    "leftButton": "nav-x.png",
    "rightButtons": ["nav-search.png", "DAMNavigator_InfoButton.png"],
    "rightButtonActions": ["Local-Search", "HowToGuide-View"]
 },
 
 
 {
 "name": "Sales Photos",
 "title": "SALES PHOTOS",
 "titleImage": "icon-med-search.png",
 "leftButton": "nav-home.png",
 "rightButtons": ["sales_camera.png", "location.png", "nav-tags.png", "nav-idrive.png", "nav-export.png"],
 "rightButtonActions": ["SalesPhotos_LaunchCameraView", "SalesPhotos_LaunchGPSLocationsView", "Photos-Tags-IS_NOW_MODAL", "iDrive", "Share"]
 },
 
 {
 "name": "Sales Photos-Tags",
 "title": "TAGS",
 "titleImage": "icon-med-tags.png",
 "leftButton": "nav-x.png",
 "rightButtons": []
 },
 
 {
 "name": "Sales Photos-Tags-Results",
 "title": "TAGS",
 "titleImage": "icon-med-tag.png",
 "titleExtra": "TagLabel",
 "leftButton": "nav-x.png",
 "rightButtons": ["nav-search.png", "nav-info.png", "nav-idrive.png", "nav-settings.png"],
 "rightButtonActions": ["Local-Search", "HowToGuide-View", "iDrive", "Settings"]
 },
 
 {
 "name": "Sales Photos-View",
 "title": "{AssetTitle}",
 "titleImage": "icon-med-search.png",
 "leftButton": "nav-x.png",
 "rightButtons": ["nav-search.png", "DAMNavigator_InfoButton.png"],
 "rightButtonActions": ["Local-Search", "HowToGuide-View"]
 },
 
 
 {
    "name": "Videos",
    "title": "VIDEOS",
    "titleImage": "icon-med-search.png",
    "leftButton": "nav-home.png",
    "rightButtons": ["nav-info.png", "nav-idrive.png", "nav-export.png"],
    "rightButtonActions": ["HowToGuide-View", "iDrive", "Share"]
 },
 
 {
    "name": "Videos-View",
    "titleImage": "icon-med-videos.png",
    "titleExtra": "VideoControls",
    "leftButton": "nav-home.png",
    "rightButtons": ["nav-export.png"],
    "rightButtonActions": ["Share"]
 },
 
 {
    "name": "Samples",
    "title": "SAMPLE BOOK",
    "titleImage": "icon-med-search.png",
    "leftButton": "nav-home.png",
    "rightButtons": ["nav-info.png", "nav-idrive.png", "nav-export.png"],
    "rightButtonActions": ["HowToGuide-View", "iDrive", "Share"]
 },
 
 {
    "name": "SampleBook-View",
    "title": "{AssetTitle}",
    "titleImage": "icon-med-samples.png",
    "leftButton": "nav-x.png",
    "rightButtons": ["nav-export.png"],
    "rightButtonActions": ["Share"]
 },

 {
 "name": "Presentations",
 "title": "PRESENTATIONS",
 "titleImage": "icon-med-presentations.png",
 "leftButton": "nav-home.png",
 "rightButtons": ["nav-search.png", "nav-info.png", "nav-idrive.png", "nav-export.png"],
 "rightButtonActions": ["Local-Search", "HowToGuide-View", "iDrive", "Share"]
 },
 
 {
 "name": "Presentations-View",
 "titleImage": "icon-med-presentations.png",
 "title": "{AssetTitle}",
 "leftButton": "nav-x.png",
 "rightButtons": ["nav-export.png"]
 },
 
 {
    "name": "Case Studies",
    "title": "CASE STUDIES",
    "titleImage": "icon-med-search.png",
    "leftButton": "nav-home.png",
    "rightButtons": ["nav-info.png", "nav-idrive.png"],
    "rightButtonActions": ["HowToGuide-View", "iDrive"]
 },
 
 {
    "name": "CaseStudies-View",
    "title": "{AssetTitle}",
    "titleImage": "icon-med-casestudies.png",
    "leftButton": "nav-x.png",
    "rightButtons": ["nav-export.png"],
    "rightButtonActions": ["Share"]
 } 
]